/* XPM */
static char * monitor_tb_xpm[] = {
"24 24 14 1",
" 	c None",
".	c #5B5B5B",
"+	c #363636",
"@	c #6D6D6D",
"#	c #7F7F7F",
"$	c #141414",
"%	c #737373",
"&	c #939393",
"*	c #333333",
"=	c #515151",
"-	c #0A0A0A",
";	c #919191",
">	c #767676",
",	c #3F3F3F",
" .++++++++++++++++++++. ",
".@++++++++++++++++++++@.",
"#+$$$$$$$$$$$$$$$$$$$$++",
"++$%&&*$$$$$$$$$$$$$$$++",
"++$&$$$$$$$$$$$$$$$$$$++",
"++$%$$$$$$$$$$$$$$$$$$++",
"++$$$$$$$$$$$$$$$$$$$$++",
"++$$$$$$$$$$$$$$$$$$$$++",
"++$$$$$$$$$$$$$$$$$$$$++",
"++$$$$$$$$$$$$$$$$$$$$++",
"++$$$$$$$$$$$$$$$$$$$$++",
"++$$$$$$$$$$$$$$$$$$$$++",
"++$$$$$$$$$$$$$$$$$$$$++",
"++$$$$$$$$$$$$$$$$$$$$++",
"++$$$$$$$$$$$$$$$$$$$$++",
"++$$$$$$$$$$$$$$$$$$$$++",
"++$$$$$$$$$$$$$$$$$$$$++",
"+=--------------------++",
"+@@@@@@@@@@@@;+==+@@@@@.",
" >;@@@@@@@@@@@+==+@@@@= ",
" #.@@@@@@@@@@@@@@@@@@+  ",
"   +@@@@@@@@@@@@@@@@.   ",
"  .@@@@@@@@@@@@@@@@@@.  ",
" ,++++++++++++++++++++# "};
