/* XPM */
static char * monitor_xpm[] = {
"48 48 5 1",
" 	c None",
".	c #000000",
"+	c #6D6D6D",
"@	c #141414",
"#	c #939393",
"   ..........................................   ",
"  .++++++++++++++++++++++++++++++++++++++++++.  ",
" .++++++++++++++++++++++++++++++++++++++++++++. ",
".+++........................................+++.",
". +.@@@@@@@@@@@@@@@@@@@@@@@@@@@@@@@@@@@@@@@@.++.",
". +.@@@@@@@@@@@@@@@@@@@@@@@@@@@@@@@@@@@@@@@@.++.",
".++.@@@######@@@@@@@@@@@@@@@@@@@@@@@@@@@@@@@.++.",
".++.@@######@@@@@@@@@@@@@@@@@@@@@@@@@@@@@@@@.++.",
".++.@@##@@@@@@@@@@@@@@@@@@@@@@@@@@@@@@@@@@@@.++.",
".++.@@##@@@@@@@@@@@@@@@@@@@@@@@@@@@@@@@@@@@@.++.",
".++.@@##@@@@@@@@@@@@@@@@@@@@@@@@@@@@@@@@@@@@.++.",
".++.@@#@@@@@@@@@@@@@@@@@@@@@@@@@@@@@@@@@@@@@.++.",
".++.@@@@@@@@@@@@@@@@@@@@@@@@@@@@@@@@@@@@@@@@.++.",
".++.@@@@@@@@@@@@@@@@@@@@@@@@@@@@@@@@@@@@@@@@.++.",
".++.@@@@@@@@@@@@@@@@@@@@@@@@@@@@@@@@@@@@@@@@.++.",
".++.@@@@@@@@@@@@@@@@@@@@@@@@@@@@@@@@@@@@@@@@.++.",
".++.@@@@@@@@@@@@@@@@@@@@@@@@@@@@@@@@@@@@@@@@.++.",
".++.@@@@@@@@@@@@@@@@@@@@@@@@@@@@@@@@@@@@@@@@.++.",
".++.@@@@@@@@@@@@@@@@@@@@@@@@@@@@@@@@@@@@@@@@.++.",
".++.@@@@@@@@@@@@@@@@@@@@@@@@@@@@@@@@@@@@@@@@.++.",
".++.@@@@@@@@@@@@@@@@@@@@@@@@@@@@@@@@@@@@@@@@.++.",
".++.@@@@@@@@@@@@@@@@@@@@@@@@@@@@@@@@@@@@@@@@.++.",
".++.@@@@@@@@@@@@@@@@@@@@@@@@@@@@@@@@@@@@@@@@.++.",
".++.@@@@@@@@@@@@@@@@@@@@@@@@@@@@@@@@@@@@@@@@.++.",
".++.@@@@@@@@@@@@@@@@@@@@@@@@@@@@@@@@@@@@@@@@.++.",
".++.@@@@@@@@@@@@@@@@@@@@@@@@@@@@@@@@@@@@@@@@.++.",
".++.@@@@@@@@@@@@@@@@@@@@@@@@@@@@@@@@@@@@@@@@.++.",
".++.@@@@@@@@@@@@@@@@@@@@@@@@@@@@@@@@@@@@@@@@.++.",
".++.@@@@@@@@@@@@@@@@@@@@@@@@@@@@@@@@@@@@@@@@.++.",
".++.@@@@@@@@@@@@@@@@@@@@@@@@@@@@@@@@@@@@@@@@.++.",
".++.@@@@@@@@@@@@@@@@@@@@@@@@@@@@@@@@@@@@@@@@.++.",
".++.@@@@@@@@@@@@@@@@@@@@@@@@@@@@@@@@@@@@@@@@.++.",
".++.@@@@@@@@@@@@@@@@@@@@@@@@@@@@@@@@@@@@@@@@.++.",
".++.@@@@@@@@@@@@@@@@@@@@@@@@@@@@@@@@@@@@@@@@.++.",
".++.@@@@@@@@@@@@@@@@@@@@@@@@@@@@@@@@@@@@@@@@.++.",
".+++.........................................++.",
".++++++++++++++++++++++++++++++++++++++++++++++.",
".++++++++++++++++++++++++++ ..+..+..++++++++++ .",
" .++++++++++++++++++++++++++..+..+..++++++++++. ",
"  .  ++++++++++++++++++++++++++++++++++++++++.  ",
"   . +++++++++++++++++++++++++++++++++++++++.   ",
"   ...++++++++++++++++++++++++++++++++++++..    ",
"      .+++++++++++++++++++++++++++++++++ .      ",
"      .++++++++++++++++++++++++++++++++++.      ",
"     .++++++++++++++++++++++++++++++++++++.     ",
"    .++++++++++++++++++++++++++++++++++++++.    ",
"   .++++++++++++++++++++++++++++++++++++++++.   ",
"   ..........................................   "};
